[
  {
    "directory": "/home/pauloqueiroz/Documents/Projects/Personal/Proton",
    "command": "cc -Iproton@exe -I. -Isrc -Isrc/libproton -I/usr/include/glib-2.0 -I/usr/lib64/glib-2.0/include -I/usr/include/gtk-3.0 -I/usr/include/pango-1.0 -I/usr/include/fribidi -I/usr/include/cairo -I/usr/include/pixman-1 -I/usr/include/freetype2 -I/usr/include/libpng16 -I/usr/include/uuid -I/usr/include/harfbuzz -I/usr/include/gdk-pixbuf-2.0 -I/usr/include/gio-unix-2.0/ -I/usr/include/libdrm -I/usr/include/atk-1.0 -I/usr/include/at-spi2-atk/2.0 -I/usr/include/at-spi-2.0 -I/usr/include/dbus-1.0 -I/usr/lib64/dbus-1.0/include -I/usr/include/gtksourceview-3.0 -I/usr/include/libxml2 -fdiagnostics-color=always -pipe -D_FILE_OFFSET_BITS=64 -Wall -Winvalid-pch -O0 -g -pthread  -MD -MQ 'proton@exe/meson-generated_.._proton-resources.c.o' -MF 'proton@exe/meson-generated_.._proton-resources.c.o.d' -o 'proton@exe/meson-generated_.._proton-resources.c.o' -c proton-resources.c",
    "file": "proton-resources.c"
  },
  {
    "directory": "/home/pauloqueiroz/Documents/Projects/Personal/Proton",
    "command": "cc -Iproton@exe -I. -Isrc -Isrc/libproton -I/usr/include/glib-2.0 -I/usr/lib64/glib-2.0/include -I/usr/include/gtk-3.0 -I/usr/include/pango-1.0 -I/usr/include/fribidi -I/usr/include/cairo -I/usr/include/pixman-1 -I/usr/include/freetype2 -I/usr/include/libpng16 -I/usr/include/uuid -I/usr/include/harfbuzz -I/usr/include/gdk-pixbuf-2.0 -I/usr/include/gio-unix-2.0/ -I/usr/include/libdrm -I/usr/include/atk-1.0 -I/usr/include/at-spi2-atk/2.0 -I/usr/include/at-spi-2.0 -I/usr/include/dbus-1.0 -I/usr/lib64/dbus-1.0/include -I/usr/include/gtksourceview-3.0 -I/usr/include/libxml2 -fdiagnostics-color=always -pipe -D_FILE_OFFSET_BITS=64 -Wall -Winvalid-pch -O0 -g -pthread  -MD -MQ 'proton@exe/main.c.o' -MF 'proton@exe/main.c.o.d' -o 'proton@exe/main.c.o' -c src/main.c",
    "file": "src/main.c"
  },
  {
    "directory": "/home/pauloqueiroz/Documents/Projects/Personal/Proton",
    "command": "cc -Iproton@exe -I. -Isrc -Isrc/libproton -I/usr/include/glib-2.0 -I/usr/lib64/glib-2.0/include -I/usr/include/gtk-3.0 -I/usr/include/pango-1.0 -I/usr/include/fribidi -I/usr/include/cairo -I/usr/include/pixman-1 -I/usr/include/freetype2 -I/usr/include/libpng16 -I/usr/include/uuid -I/usr/include/harfbuzz -I/usr/include/gdk-pixbuf-2.0 -I/usr/include/gio-unix-2.0/ -I/usr/include/libdrm -I/usr/include/atk-1.0 -I/usr/include/at-spi2-atk/2.0 -I/usr/include/at-spi-2.0 -I/usr/include/dbus-1.0 -I/usr/lib64/dbus-1.0/include -I/usr/include/gtksourceview-3.0 -I/usr/include/libxml2 -fdiagnostics-color=always -pipe -D_FILE_OFFSET_BITS=64 -Wall -Winvalid-pch -O0 -g -pthread  -MD -MQ 'proton@exe/libproton_prothread.c.o' -MF 'proton@exe/libproton_prothread.c.o.d' -o 'proton@exe/libproton_prothread.c.o' -c src/libproton/prothread.c",
    "file": "src/libproton/prothread.c"
  },
  {
    "directory": "/home/pauloqueiroz/Documents/Projects/Personal/Proton",
    "command": "cc -Iproton@exe -I. -Isrc -Isrc/libproton -I/usr/include/glib-2.0 -I/usr/lib64/glib-2.0/include -I/usr/include/gtk-3.0 -I/usr/include/pango-1.0 -I/usr/include/fribidi -I/usr/include/cairo -I/usr/include/pixman-1 -I/usr/include/freetype2 -I/usr/include/libpng16 -I/usr/include/uuid -I/usr/include/harfbuzz -I/usr/include/gdk-pixbuf-2.0 -I/usr/include/gio-unix-2.0/ -I/usr/include/libdrm -I/usr/include/atk-1.0 -I/usr/include/at-spi2-atk/2.0 -I/usr/include/at-spi-2.0 -I/usr/include/dbus-1.0 -I/usr/lib64/dbus-1.0/include -I/usr/include/gtksourceview-3.0 -I/usr/include/libxml2 -fdiagnostics-color=always -pipe -D_FILE_OFFSET_BITS=64 -Wall -Winvalid-pch -O0 -g -pthread  -MD -MQ 'proton@exe/libproton_prothread-manager.c.o' -MF 'proton@exe/libproton_prothread-manager.c.o.d' -o 'proton@exe/libproton_prothread-manager.c.o' -c src/libproton/prothread-manager.c",
    "file": "src/libproton/prothread-manager.c"
  },
  {
    "directory": "/home/pauloqueiroz/Documents/Projects/Personal/Proton",
    "command": "cc -Iproton@exe -I. -Isrc -Isrc/libproton -I/usr/include/glib-2.0 -I/usr/lib64/glib-2.0/include -I/usr/include/gtk-3.0 -I/usr/include/pango-1.0 -I/usr/include/fribidi -I/usr/include/cairo -I/usr/include/pixman-1 -I/usr/include/freetype2 -I/usr/include/libpng16 -I/usr/include/uuid -I/usr/include/harfbuzz -I/usr/include/gdk-pixbuf-2.0 -I/usr/include/gio-unix-2.0/ -I/usr/include/libdrm -I/usr/include/atk-1.0 -I/usr/include/at-spi2-atk/2.0 -I/usr/include/at-spi-2.0 -I/usr/include/dbus-1.0 -I/usr/lib64/dbus-1.0/include -I/usr/include/gtksourceview-3.0 -I/usr/include/libxml2 -fdiagnostics-color=always -pipe -D_FILE_OFFSET_BITS=64 -Wall -Winvalid-pch -O0 -g -pthread  -MD -MQ 'proton@exe/libproton_proton.c.o' -MF 'proton@exe/libproton_proton.c.o.d' -o 'proton@exe/libproton_proton.c.o' -c src/libproton/proton.c",
    "file": "src/libproton/proton.c"
  },
  {
    "directory": "/home/pauloqueiroz/Documents/Projects/Personal/Proton",
    "command": "cc -Iproton@exe -I. -Isrc -Isrc/libproton -I/usr/include/glib-2.0 -I/usr/lib64/glib-2.0/include -I/usr/include/gtk-3.0 -I/usr/include/pango-1.0 -I/usr/include/fribidi -I/usr/include/cairo -I/usr/include/pixman-1 -I/usr/include/freetype2 -I/usr/include/libpng16 -I/usr/include/uuid -I/usr/include/harfbuzz -I/usr/include/gdk-pixbuf-2.0 -I/usr/include/gio-unix-2.0/ -I/usr/include/libdrm -I/usr/include/atk-1.0 -I/usr/include/at-spi2-atk/2.0 -I/usr/include/at-spi-2.0 -I/usr/include/dbus-1.0 -I/usr/lib64/dbus-1.0/include -I/usr/include/gtksourceview-3.0 -I/usr/include/libxml2 -fdiagnostics-color=always -pipe -D_FILE_OFFSET_BITS=64 -Wall -Winvalid-pch -O0 -g -pthread  -MD -MQ 'proton@exe/libproton_proton-editor.c.o' -MF 'proton@exe/libproton_proton-editor.c.o.d' -o 'proton@exe/libproton_proton-editor.c.o' -c src/libproton/proton-editor.c",
    "file": "src/libproton/proton-editor.c"
  },
  {
    "directory": "/home/pauloqueiroz/Documents/Projects/Personal/Proton",
    "command": "cc -Iproton@exe -I. -Isrc -Isrc/libproton -I/usr/include/glib-2.0 -I/usr/lib64/glib-2.0/include -I/usr/include/gtk-3.0 -I/usr/include/pango-1.0 -I/usr/include/fribidi -I/usr/include/cairo -I/usr/include/pixman-1 -I/usr/include/freetype2 -I/usr/include/libpng16 -I/usr/include/uuid -I/usr/include/harfbuzz -I/usr/include/gdk-pixbuf-2.0 -I/usr/include/gio-unix-2.0/ -I/usr/include/libdrm -I/usr/include/atk-1.0 -I/usr/include/at-spi2-atk/2.0 -I/usr/include/at-spi-2.0 -I/usr/include/dbus-1.0 -I/usr/lib64/dbus-1.0/include -I/usr/include/gtksourceview-3.0 -I/usr/include/libxml2 -fdiagnostics-color=always -pipe -D_FILE_OFFSET_BITS=64 -Wall -Winvalid-pch -O0 -g -pthread  -MD -MQ 'proton@exe/libproton_proton-file.c.o' -MF 'proton@exe/libproton_proton-file.c.o.d' -o 'proton@exe/libproton_proton-file.c.o' -c src/libproton/proton-file.c",
    "file": "src/libproton/proton-file.c"
  }
]
